1: [370 308 257 376 326 334 304 323 268 349 359 288 171 406 419 135 395 211
 350 382]
2: [370 334 326 383 304 349 211 323 268 171 308 257 359 395 419 350 407 384
  12 376]
3: [211 349 334 308  12 350 407 395 419 326 383 154 106  29 376 323 316 384
 259 171]
4: [211 334 308 349 383 370 326 350 395 407 419 304 171 268 323 257 376 384
 359 154]
5: [211 349 383 334 395 350 407 419 308 326  12 154 304 376  30 384 370 106
  29 171]
6: [308 326 323 211 257 268 349 334 395 324 407 350 304 419 383 154 288 171
 259 376]
7: [ 49 384 421 406  87 169 239 153 287 107 232 156  80 170  39 226 414 315
 321 360]
8: [339 358  61 155 156 269 303 242 212 149 258 207 144 167 116  36 418 329
  75 346]
9: [358 339 269  61 156 242 198 238 155 303  68 245  31  46 127 195 315 355
 225  88]
10: [269 155 358  61 156 339 303 242 258  89 144  49 384 405 167 340 169  36
  68  75]
11: [198 195 135 269 238 148 254 339 262  40  61 423 358 242 156  41 142 364
  25 272]
12: [358 155 156 269  61 242 303 339 258 198 238 144 167  36 340  75 309 115
 159  90]
13: [185  79 287 170  87 169 342 239 350 151 221 228 132 188 306 267 421   5
  32  80]
14: [269 279 411  45 239 310 341 107 234 218 415 292 175 350 316  53 205  88
   9 384]
15: [422 118 164  94 128 166 305 338 182 331 211 354 350 387 207 243 389 349
 325 334]
16: [185 239 169 287 350  87 395 170 221 374  99 274 201 333 292 421 112 238
 332 344]
17: [303 358 156  61 155 339 258 269 242 167  68 144  36  75 309 391 315 154
 159 364]
18: [356  40  56 423 142 247 292  41 275 267  79 198  50 174  24 342 295 344
 159 418]
19: [195 159 267  99 344 100  10 121  86 234 115  36 137 226 377 194 139  40
 423 342]
20: [423  40 387 292  41 295 195 100 351 148  50 230 142  79 267 198 159 382
 180  56]
21: [305 342 318 338 354 331 196 389 107 400  76 372 230 236 361 108 227 356
 337  66]
22: [356 285  50 388  11  41 142 347 245 319  67 135 364  25 247 197 304 185
  34 383]
23: [423  40 142  41 267 198 358  79 411 195 159 342 180 292  50 156 361 382
 230 339]
24: [318  53  40 338 236 423 107 361  80  41 159  66 142  79 267 198 230 292
  11 168]
25: [121 246 342 194 139 159 278 138  86 377 115 237 100 210 119  70  17  48
 181 209]
26: [411 378 307 290 102 343 142 218 202 417 243 251 245 189 303 360 332 295
  40 391]
27: [420 295 341  24 279  47 111 272  63 235 303 156 151  89 227 202 216 418
 322 275]
28: [200  81 118 390 277 149 245 283 360 325 150 394 307 391  96 189 400 266
 225  58]
29: [192 341 329 158 105 184 157 323 364 230 224 315 378 383 418 115 382 350
 346 423]
30: [271 253 261 302  20 387 182 333 229 122 413 272  58  71  32 273 293 325
 369 207]
31: [  9 102  74 138 316 103 300 415  39  81 298 336 246  98  56  47 165 303
 266 312]
32: [279 316 295 411  74  38 306  53 415 102 367 275 329 115 290 315 113 341
  15 107]
33: [251 335  22 332 323 308  90   8 360 349 157 364 378 395 217 187 293 221
 122 110]
34: [294 238 194 290 202 305  70 131 258 261 114 246 151 329 418 196 328 317
   9 208]
35: [318 236 338  80 132   9 107 184  76 324 363 239 230 218 305 109  15 266
 115 331]
36: [217 200 218 139 210 388 320 297  27 211 224  70 236  50 408 304 121 106
 192 140]
37: [378 382 230 423 102 401  56  48 221 341 367  24 343 239  49 121 295 245
 350 100]
38: [306 174  48 190 202  47 356 333 222 216  89 152  53 402 135 145 228 254
  12 272]
39: [360 277 265 189 219 394  22 173 150 255  73 133  81 103 266 134  40 332
 286 391]
40: [207 272  20  71 148 369  39 182  58 261 139 325 245 229 271 390 134 379
 365  32]
41: [ 47  54  69 215 284  23 291  53 157 116   1 231  90 260 351  31 101 203
 202 174]
42: [ 47  54  69   1  53 157 215 284 174 116 291  23 231  90 260 351 202 232
 135 228]
43: [341 329 192 279 367 290 158 113 306  21 186 276 385 404 295  38  15 184
  53   1]
44: [295 306 102  82 315  31 291 133 364  98 378 390  23  75 245 316 138 348
 157 349]
45: [ 75 229 365 379  20  58 261  32   9 148 253 167 271  39 182 144 247   1
 302 264]
46: [ 47 202  54  23 151  69 215  53  56 291 284  20   1 348  80 116 231  90
 351 260]
47: [ 93  31  47 174  48 202 378 254  54  89  23 115 135  53 390 228 423  75
 148 157]
48: [306 420  63  46 374 295  89 181 216 272 174  23  12 343  51 145 322 201
 229 251]
49: [ 56 183 205 103 150 312 300 378 291 316 380  81 375 228 175  47  53  98
 266 102]
50: [157 402 364 221 133  89 265 228 418  53 116  47 249   1 135  24 276 247
 114 350]
51: [ 38 276 279 329   2 367 290 186 113 306 341 190  21 385 404 295  15 183
 114 111]
52: [186  38 276 367 290 279 306 307  15 113 114 329 217 263   2 341 404 172
 413  21]
53: [295 306 102 315  38 364 402   1 290 279 329  82 367 237 113  89 341 401
 228 157]
54: [306 315 295  38 411 401 343  79 363   8 135 335 423 290  16  47 199 384
   1 418]
55: [ 89 157   1 254 402 228 247 135 364  38 295 418 382  73  54 279 291  47
 148 283]
56: [145 382 135  38 418 161 423 279 315  23 404   1 140 121 306 364 148 170
 378 343]
57: [306 295 315  38  82 335 401  79 420 363 317 411  59 118 291  56 350 348
 338   8]
58: [135 157  38   1  89  23 254 402 228 247 148 418 360 295  73 290 423 272
 174  54]
59: [ 79 306  40 350 184 228 148 151 170 423  38 404 185 419 421 146 418 378
 293 296]
60: [306 295 315  38  79 335 401 363 317 411  59 118  82 291  56 350 303 348
 338 334]
61: [135   1  89 174 295 228 315 157  82 247 254 402  47  53 272 423 290  29
 363 310]
62: [233 114 307 315 145 275 296 398  95 289 377 306 290 318 416 186 194 204
 250 279]
63: [121 159 139 115 377  86 309 100 194 210  10 234 224 209  35 181  70 195
 386 411]
64: [322 328  46 243 420 371 184   7  31 271 379  92 365 283  75 182 400 253
 144  71]
65: [342 246 121 194 309  31  46 278 138  35 100 237  25 377 115  17 210 119
 386 234]
66: [194 121 115 377  70 210 100 386  86 159 341  35 309 233 234 227  55 306
 195 230]
67: [  7 184  63 346 420   8  92 315  46  31 371 328 322 397 411 243 417 422
 210 178]
68: [420 290 243  31 289  46 307 343  27 275 238  68   7 279  87 352 280 308
  63 353]
69: [377 121 386 194 115  70 159 139 309 100 210  86 224 234 195 233  35  55
 200  79]
70: [226 223 390 264 140 245 225 100 413 137  42 396   9  26 194 115 377 284
 158  55]
71: [117 258 420 417  46 350 384 408 346 121   8 361 414 267 315 221  24 230
 341 179]
72: [305 354 331 196 338 389  76 400 372  66 337 326 107 230  78 227 304 414
 211 251]
73: [209  43 320  37 168 236 300 284 159 226 351   6 249 146 341  90  47 139
 371 130]
74: [285  34  25  41  67   5 356  50  11 347 142 180 259  63 388 236 319 244
 197 227]
75: [197 388 347 142  34 356 240 285 310  57 227  25   5 406 114 271 326 236
  17 161]
76: [230 227 338 259 236 107 168 108 361 218 167 242 408 210 331 356 144 139
  53 121]
77: [ 14 338 399 177 107 303 318 368 358 218 156 266  65  90 230 331 255 263
 227 372]
78: [258 107 241 408 314 117 109 167 358 144 409 423  36 305  75 338 196 230
  68 259]
79: [ 43 209 320  37 158 118 159 422   6 168 225  75 236 226 413 108 387 150
  81 189]
80: [ 68 382 305 275 417 149 361 258 279 340 280 307  40 107 230  47 272 215
 269 354]
81: [378 289 343 307 290 404 401  27 296 238 292 279 275 423 218 280 104 336
 315 418]
82: [343 296 279 280 216   8 307 290 411  16 199 384 289 385 374 161 423 275
 315 148]
83: [363 307 275 353 289 290 343 111 296 279 418 280  68 352 238 315  15 358
 221 350]
